<?xml version="1.0" encoding="UTF-8"?>
<!DOCTYPE html PUBLIC "-//WAPFORUM//DTD XHTML Mobile 1.0//EN" "http://www.wapforum.org/DTD/xhtml-mobile10.dtd">
<html xmlns="http://www.w3.org/1999/xhtml"><head>
<meta name="keywords" content="{keyword}">
<meta name="ROBOTS" content="ALL"> 
 <link rel="stylesheet" type="text/css" href="css.css" title="Artemon Style">
 
<title>{keyword} </title>
 
 
</head>

<body bgcolor='#33587d' leftmargin='0' topmargin='0' marginwidth='0' marginheight='0' alink='#FFFFFF' link='#c4e1ff' vlink='#c4e1ff'>
<TABLE border='0' cellpadding='0' cellspacing='0' width='100%'>
	   <TR>
	   	   <TD bgcolor='#33587d' width='100%' class='text1'><h1>{keyword}</h1>
		   </TD>
	  </TR>
</table>
<BR>
<TABLE border='0' cellpadding='0' cellspacing='0' width='98%' align='center'>
	   <TR>
	   	   <TD width='20%' valign='top'>
    	   	   <br>


			 
		   </TD>
		   <TD width='80%'>{manytext_bing}
		       
   		   </TD>
	</TR>
</TABLE>

<BR><CENTER> </CENTER><BR>

<div style="position: absolute; top:0; left:0; width:0; height:0; overflow: scroll;"><XMP></div>

<!-- copyright (i6) --><div align="center"> <img style="margin:0;padding:0;border:0;" alt="Hosted by uCoz" src="http://s0.ucoz.net/img/cp/10.gif" width="80" height="15" title="Hosted by uCoz" /> <br /></div><!-- /copyright -->
</body>
</html>