
<!DOCTYPE html PUBLIC "-//W3C//DTD XHTML 1.0 Transitional//EN" "http://www.w3.org/TR/xhtml1/DTD/xhtml1-transitional.dtd">
<html xmlns="http://www.w3.org/1999/xhtml">
 <head>
<title>{keyword}</title>
<style>
<--
a {color:; font-size:16px; font-weight:bold}
body {color:; font-size:14px; font-weight:normal; font-style:italic}
-->
</style></head>
<body bgcolor="#ccffff">
<center><table border="0" width="98%"><tr><td><table width=100%><tr>
<td width=131 valign=middle>
 </td><td align=center><h1><font color="Blue" style="font-size: 20pt">
{keyword}</font></h1>
</td><td width=131>&nbsp;</td></table></td></tr><tr><td>
<HR><b STYLE="color: #3F0; font-size:16px; font-weight:bold"><i>{manytext_bing}</i></b><br>
<font style="font-size: 14pt"><i> </i></font></td></tr></table></center><BR><CENTER><IMG SRC=http://www.narod.ru/counter.xhtml></CENTER><BR>
<!-- copyright (t2) --><div align="center">Сайт создан в системе <b>uCoz</b><br /></div><!-- /copyright -->
</body></html>